^C:\MESTRADO\1ANO\EDOM\EDOM-18-19-SFA-10\PROJECT-RESEARCH-TOPIC\REQUIREMENTS\DSLPACKAGE\SOURCE.EXTENSION.TT
C:\MESTRADO\1ANO\EDOM\EDOM-18-19-SFA-10\PROJECT-RESEARCH-TOPIC\REQUIREMENTS\DSLPACKAGE\SOURCE.EXTENSION.VSIXMANIFEST
^C:\MESTRADO\1ANO\EDOM\EDOM-18-19-SFA-10\PROJECT-RESEARCH-TOPIC\REQUIREMENTS\DSLPACKAGE\GENERATEDCODE\CONSTANTS.TT
C:\MESTRADO\1ANO\EDOM\EDOM-18-19-SFA-10\PROJECT-RESEARCH-TOPIC\REQUIREMENTS\DSLPACKAGE\GENERATEDCODE\CONSTANTS.CS
^C:\MESTRADO\1ANO\EDOM\EDOM-18-19-SFA-10\PROJECT-RESEARCH-TOPIC\REQUIREMENTS\DSLPACKAGE\GENERATEDCODE\DOCDATA.TT
C:\MESTRADO\1ANO\EDOM\EDOM-18-19-SFA-10\PROJECT-RESEARCH-TOPIC\REQUIREMENTS\DSLPACKAGE\GENERATEDCODE\DOCDATA.CS
^C:\MESTRADO\1ANO\EDOM\EDOM-18-19-SFA-10\PROJECT-RESEARCH-TOPIC\REQUIREMENTS\DSLPACKAGE\GENERATEDCODE\DOCVIEW.TT
C:\MESTRADO\1ANO\EDOM\EDOM-18-19-SFA-10\PROJECT-RESEARCH-TOPIC\REQUIREMENTS\DSLPACKAGE\GENERATEDCODE\DOCVIEW.CS
^C:\MESTRADO\1ANO\EDOM\EDOM-18-19-SFA-10\PROJECT-RESEARCH-TOPIC\REQUIREMENTS\DSLPACKAGE\GENERATEDCODE\MODELEXPLORER.TT
C:\MESTRADO\1ANO\EDOM\EDOM-18-19-SFA-10\PROJECT-RESEARCH-TOPIC\REQUIREMENTS\DSLPACKAGE\GENERATEDCODE\MODELEXPLORER.CS
^C:\MESTRADO\1ANO\EDOM\EDOM-18-19-SFA-10\PROJECT-RESEARCH-TOPIC\REQUIREMENTS\DSLPACKAGE\GENERATEDCODE\EDITORFACTORY.TT
C:\MESTRADO\1ANO\EDOM\EDOM-18-19-SFA-10\PROJECT-RESEARCH-TOPIC\REQUIREMENTS\DSLPACKAGE\GENERATEDCODE\EDITORFACTORY.CS
^C:\MESTRADO\1ANO\EDOM\EDOM-18-19-SFA-10\PROJECT-RESEARCH-TOPIC\REQUIREMENTS\DSLPACKAGE\GENERATEDCODE\MODELEXPLORERTOOLWINDOW.TT
C:\MESTRADO\1ANO\EDOM\EDOM-18-19-SFA-10\PROJECT-RESEARCH-TOPIC\REQUIREMENTS\DSLPACKAGE\GENERATEDCODE\MODELEXPLORERTOOLWINDOW.CS
^C:\MESTRADO\1ANO\EDOM\EDOM-18-19-SFA-10\PROJECT-RESEARCH-TOPIC\REQUIREMENTS\DSLPACKAGE\GENERATEDCODE\PACKAGE.TT
C:\MESTRADO\1ANO\EDOM\EDOM-18-19-SFA-10\PROJECT-RESEARCH-TOPIC\REQUIREMENTS\DSLPACKAGE\GENERATEDCODE\PACKAGE.CS
^C:\MESTRADO\1ANO\EDOM\EDOM-18-19-SFA-10\PROJECT-RESEARCH-TOPIC\REQUIREMENTS\DSLPACKAGE\GENERATEDCODE\COMMANDSET.TT
C:\MESTRADO\1ANO\EDOM\EDOM-18-19-SFA-10\PROJECT-RESEARCH-TOPIC\REQUIREMENTS\DSLPACKAGE\GENERATEDCODE\COMMANDSET.CS
^C:\MESTRADO\1ANO\EDOM\EDOM-18-19-SFA-10\PROJECT-RESEARCH-TOPIC\REQUIREMENTS\DSLPACKAGE\GENERATEDCODE\GENERATEDVSCT.TT
C:\MESTRADO\1ANO\EDOM\EDOM-18-19-SFA-10\PROJECT-RESEARCH-TOPIC\REQUIREMENTS\DSLPACKAGE\GENERATEDCODE\GENERATEDVSCT.VSCT
^C:\MESTRADO\1ANO\EDOM\EDOM-18-19-SFA-10\PROJECT-RESEARCH-TOPIC\REQUIREMENTS\DSLPACKAGE\PROJECTITEMTEMPLATES\CSHARP.TT
C:\MESTRADO\1ANO\EDOM\EDOM-18-19-SFA-10\PROJECT-RESEARCH-TOPIC\REQUIREMENTS\DSLPACKAGE\PROJECTITEMTEMPLATES\CSHARP.VSTEMPLATE
^C:\MESTRADO\1ANO\EDOM\EDOM-18-19-SFA-10\PROJECT-RESEARCH-TOPIC\REQUIREMENTS\DSLPACKAGE\PROJECTITEMTEMPLATES\VISUALBASIC.TT
C:\MESTRADO\1ANO\EDOM\EDOM-18-19-SFA-10\PROJECT-RESEARCH-TOPIC\REQUIREMENTS\DSLPACKAGE\PROJECTITEMTEMPLATES\VISUALBASIC.VSTEMPLATE
